{
  "version": 1,
  "title": "Average Sessions per User",
  "type": "SingleStat",
  "data": {
    "type": "cube_analytics",
    "query": {
      "measures": ["Sessions.averagePerUser"],
      "limit": 100,
      "timezone": "UTC",
      "filters": [],
      "dimensions": [],
      "timeDimensions": []
    }
  },
  "options": {}
}
